'PI adddress 192.168.86.72'
start listening
TUI message:
/volumeGeneral
Start sending from: 192.168.86.72 to 192.168.86.43
	Sending message: 192.168.86.72-Move_1-0.03
TUI message:
/volumeGeneral
Start sending from: 192.168.86.72 to 192.168.86.43
	Sending message: 192.168.86.72-Move_1-0.03
TUI message:
/volumeGeneral
Start sending from: 192.168.86.72 to 192.168.86.43
	Sending message: 192.168.86.72-Move_1-0.03
TUI message:
/volumeGeneral
Start sending from: 192.168.86.72 to 192.168.86.43
	Sending message: 192.168.86.72-Move_1-0.03
TUI message:
/volumeGeneral
Start sending from: 192.168.86.72 to 192.168.86.43
	Sending message: 192.168.86.72-Move_1-0.03
TUI message:
/volumeGeneral
Start sending from: 192.168.86.72 to 192.168.86.43
	Sending message: 192.168.86.72-Move_1-0.03
	sent 192.168.86.72-Move_1-0.03
	sent 192.168.86.72-Move_1-0.03
	sent 192.168.86.72-Move_1-0.03
	sent 192.168.86.72-Move_1-0.03
	sent 192.168.86.72-Move_1-0.03
	sent 192.168.86.72-Move_1-0.03
{ time: 1503758594655, response: 'volume Success' }
IncomingMessage {
  _readableState: 
   ReadableState {
     objectMode: false,
     highWaterMark: 16384,
     buffer: BufferList { head: null, tail: null, length: 0 },
     length: 0,
     pipes: null,
     pipesCount: 0,
     flowing: true,
     ended: true,
     endEmitted: true,
     reading: false,
     sync: true,
     needReadable: false,
     emittedReadable: false,
     readableListening: false,
     resumeScheduled: false,
     defaultEncoding: 'utf8',
     ranOut: false,
     awaitDrain: 0,
     readingMore: false,
     decoder: null,
     encoding: null },
  readable: false,
  domain: null,
  _events: 
   { end: [ [Function: responseOnEnd], [Function] ],
     data: [Function],
     error: [Function] },
  _eventsCount: 3,
  _maxListeners: undefined,
  socket: 
   Socket {
     connecting: false,
     _hadError: false,
     _handle: null,
     _parent: null,
     _host: 'localhost',
     _readableState: 
      ReadableState {
        objectMode: false,
        highWaterMark: 16384,
        buffer: [Object],
        length: 0,
        pipes: null,
        pipesCount: 0,
        flowing: true,
        ended: false,
        endEmitted: false,
        reading: true,
        sync: false,
        needReadable: true,
        emittedReadable: false,
        readableListening: false,
        resumeScheduled: false,
        defaultEncoding: 'utf8',
        ranOut: false,
        awaitDrain: 0,
        readingMore: false,
        decoder: null,
        encoding: null },
     readable: false,
     domain: null,
     _events: 
      { end: [Object],
        finish: [Function: onSocketFinish],
        _socketEnd: [Function: onSocketEnd],
        free: [Function: onFree],
        close: [Object],
        agentRemove: [Function: onRemove],
        drain: [Function: ondrain],
        error: [Function: socketErrorListener] },
     _eventsCount: 8,
     _maxListeners: undefined,
     _writableState: 
      WritableState {
        objectMode: false,
        highWaterMark: 16384,
        needDrain: false,
        ending: true,
        ended: true,
        finished: true,
        decodeStrings: false,
        defaultEncoding: 'utf8',
        length: 0,
        writing: false,
        corked: 0,
        sync: false,
        bufferProcessing: false,
        onwrite: [Function],
        writecb: null,
        writelen: 0,
        bufferedRequest: null,
        lastBufferedRequest: null,
        pendingcb: 0,
        prefinished: true,
        errorEmitted: false,
        bufferedRequestCount: 0,
        corkedRequestsFree: [Object] },
     writable: false,
     allowHalfOpen: false,
     destroyed: true,
     _bytesDispatched: 96,
     _sockname: null,
     _pendingData: null,
     _pendingEncoding: '',
     server: null,
     _server: null,
     parser: null,
     _httpMessage: 
      ClientRequest {
        domain: null,
        _events: [Object],
        _eventsCount: 5,
        _maxListeners: undefined,
        output: [],
        outputEncodings: [],
        outputCallbacks: [],
        outputSize: 0,
        writable: true,
        _last: true,
        upgrading: false,
        chunkedEncoding: false,
        shouldKeepAlive: false,
        useChunkedEncodingByDefault: false,
        sendDate: false,
        _removedHeader: {},
        _contentLength: 0,
        _hasBody: true,
        _trailer: '',
        finished: true,
        _headerSent: true,
        socket: [Circular],
        connection: [Circular],
        _header: 'GET /api/v1/commands/?cmd=volume&volume=41 HTTP/1.1\r\nHost: localhost:3000\r\nConnection: close\r\n\r\n',
        _headers: [Object],
        _headerNames: [Object],
        _onPendingData: null,
        agent: [Object],
        socketPath: undefined,
        timeout: undefined,
        method: 'GET',
        path: '/api/v1/commands/?cmd=volume&volume=41',
        _ended: true,
        _redirectable: [Object],
        parser: null,
        res: [Circular] },
     read: [Function],
     _consuming: true,
     _idleNext: null,
     _idlePrev: null,
     _idleTimeout: -1 },
  connection: 
   Socket {
     connecting: false,
     _hadError: false,
     _handle: null,
     _parent: null,
     _host: 'localhost',
     _readableState: 
      ReadableState {
        objectMode: false,
        highWaterMark: 16384,
        buffer: [Object],
        length: 0,
        pipes: null,
        pipesCount: 0,
        flowing: true,
        ended: false,
        endEmitted: false,
        reading: true,
        sync: false,
        needReadable: true,
        emittedReadable: false,
        readableListening: false,
        resumeScheduled: false,
        defaultEncoding: 'utf8',
        ranOut: false,
        awaitDrain: 0,
        readingMore: false,
        decoder: null,
        encoding: null },
     readable: false,
     domain: null,
     _events: 
      { end: [Object],
        finish: [Function: onSocketFinish],
        _socketEnd: [Function: onSocketEnd],
        free: [Function: onFree],
        close: [Object],
        agentRemove: [Function: onRemove],
        drain: [Function: ondrain],
        error: [Function: socketErrorListener] },
     _eventsCount: 8,
     _maxListeners: undefined,
     _writableState: 
      WritableState {
        objectMode: false,
        highWaterMark: 16384,
        needDrain: false,
        ending: true,
        ended: true,
        finished: true,
        decodeStrings: false,
        defaultEncoding: 'utf8',
        length: 0,
        writing: false,
        corked: 0,
        sync: false,
        bufferProcessing: false,
        onwrite: [Function],
        writecb: null,
        writelen: 0,
        bufferedRequest: null,
        lastBufferedRequest: null,
        pendingcb: 0,
        prefinished: true,
        errorEmitted: false,
        bufferedRequestCount: 0,
        corkedRequestsFree: [Object] },
     writable: false,
     allowHalfOpen: false,
     destroyed: true,
     _bytesDispatched: 96,
     _sockname: null,
     _pendingData: null,
     _pendingEncoding: '',
     server: null,
     _server: null,
     parser: null,
     _httpMessage: 
      ClientRequest {
        domain: null,
        _events: [Object],
        _eventsCount: 5,
        _maxListeners: undefined,
        output: [],
        outputEncodings: [],
        outputCallbacks: [],
        outputSize: 0,
        writable: true,
        _last: true,
        upgrading: false,
        chunkedEncoding: false,
        shouldKeepAlive: false,
        useChunkedEncodingByDefault: false,
        sendDate: false,
        _removedHeader: {},
        _contentLength: 0,
        _hasBody: true,
        _trailer: '',
        finished: true,
        _headerSent: true,
        socket: [Circular],
        connection: [Circular],
        _header: 'GET /api/v1/commands/?cmd=volume&volume=41 HTTP/1.1\r\nHost: localhost:3000\r\nConnection: close\r\n\r\n',
        _headers: [Object],
        _headerNames: [Object],
        _onPendingData: null,
        agent: [Object],
        socketPath: undefined,
        timeout: undefined,
        method: 'GET',
        path: '/api/v1/commands/?cmd=volume&volume=41',
        _ended: true,
        _redirectable: [Object],
        parser: null,
        res: [Circular] },
     read: [Function],
     _consuming: true,
     _idleNext: null,
     _idlePrev: null,
     _idleTimeout: -1 },
  httpVersionMajor: 1,
  httpVersionMinor: 1,
  httpVersion: '1.1',
  complete: true,
  headers: 
   { 'x-powered-by': 'Express',
     'access-control-allow-origin': '*',
     'access-control-allow-methods': 'GET,PUT,POST,DELETE,OPTIONS',
     'access-control-allow-headers': 'Content-Type, Authorization, Content-Length, X-Requested-With',
     'content-type': 'application/json; charset=utf-8',
     'content-length': '50',
     etag: 'W/"32-wbsUMV5Lpit+z3YWXhSrJsMUrVo"',
     vary: 'Accept-Encoding',
     date: 'Sat, 26 Aug 2017 14:43:14 GMT',
     connection: 'close' },
  rawHeaders: 
   [ 'X-Powered-By',
     'Express',
     'Access-Control-Allow-Origin',
     '*',
     'Access-Control-Allow-Methods',
     'GET,PUT,POST,DELETE,OPTIONS',
     'Access-Control-Allow-Headers',
     'Content-Type, Authorization, Content-Length, X-Requested-With',
     'Content-Type',
     'application/json; charset=utf-8',
     'Content-Length',
     '50',
     'ETag',
     'W/"32-wbsUMV5Lpit+z3YWXhSrJsMUrVo"',
     'Vary',
     'Accept-Encoding',
     'Date',
     'Sat, 26 Aug 2017 14:43:14 GMT',
     'Connection',
     'close' ],
  trailers: {},
  rawTrailers: [],
  upgrade: false,
  url: '',
  method: null,
  statusCode: 200,
  statusMessage: 'OK',
  client: 
   Socket {
     connecting: false,
     _hadError: false,
     _handle: null,
     _parent: null,
     _host: 'localhost',
     _readableState: 
      ReadableState {
        objectMode: false,
        highWaterMark: 16384,
        buffer: [Object],
        length: 0,
        pipes: null,
        pipesCount: 0,
        flowing: true,
        ended: false,
        endEmitted: false,
        reading: true,
        sync: false,
        needReadable: true,
        emittedReadable: false,
        readableListening: false,
        resumeScheduled: false,
        defaultEncoding: 'utf8',
        ranOut: false,
        awaitDrain: 0,
        readingMore: false,
        decoder: null,
        encoding: null },
     readable: false,
     domain: null,
     _events: 
      { end: [Object],
        finish: [Function: onSocketFinish],
        _socketEnd: [Function: onSocketEnd],
        free: [Function: onFree],
        close: [Object],
        agentRemove: [Function: onRemove],
        drain: [Function: ondrain],
        error: [Function: socketErrorListener] },
     _eventsCount: 8,
     _maxListeners: undefined,
     _writableState: 
      WritableState {
        objectMode: false,
        highWaterMark: 16384,
        needDrain: false,
        ending: true,
        ended: true,
        finished: true,
        decodeStrings: false,
        defaultEncoding: 'utf8',
        length: 0,
        writing: false,
        corked: 0,
        sync: false,
        bufferProcessing: false,
        onwrite: [Function],
        writecb: null,
        writelen: 0,
        bufferedRequest: null,
        lastBufferedRequest: null,
        pendingcb: 0,
        prefinished: true,
        errorEmitted: false,
        bufferedRequestCount: 0,
        corkedRequestsFree: [Object] },
     writable: false,
     allowHalfOpen: false,
     destroyed: true,
     _bytesDispatched: 96,
     _sockname: null,
     _pendingData: null,
     _pendingEncoding: '',
     server: null,
     _server: null,
     parser: null,
     _httpMessage: 
      ClientRequest {
        domain: null,
        _events: [Object],
        _eventsCount: 5,
        _maxListeners: undefined,
        output: [],
        outputEncodings: [],
        outputCallbacks: [],
        outputSize: 0,
        writable: true,
        _last: true,
        upgrading: false,
        chunkedEncoding: false,
        shouldKeepAlive: false,
        useChunkedEncodingByDefault: false,
        sendDate: false,
        _removedHeader: {},
        _contentLength: 0,
        _hasBody: true,
        _trailer: '',
        finished: true,
        _headerSent: true,
        socket: [Circular],
        connection: [Circular],
        _header: 'GET /api/v1/commands/?cmd=volume&volume=41 HTTP/1.1\r\nHost: localhost:3000\r\nConnection: close\r\n\r\n',
        _headers: [Object],
        _headerNames: [Object],
        _onPendingData: null,
        agent: [Object],
        socketPath: undefined,
        timeout: undefined,
        method: 'GET',
        path: '/api/v1/commands/?cmd=volume&volume=41',
        _ended: true,
        _redirectable: [Object],
        parser: null,
        res: [Circular] },
     read: [Function],
     _consuming: true,
     _idleNext: null,
     _idlePrev: null,
     _idleTimeout: -1 },
  _consuming: true,
  _dumped: false,
  req: 
   ClientRequest {
     domain: null,
     _events: 
      { socket: [Object],
        abort: [Function],
        aborted: [Function],
        error: [Function],
        prefinish: [Function: requestOnPrefinish] },
     _eventsCount: 5,
     _maxListeners: undefined,
     output: [],
     outputEncodings: [],
     outputCallbacks: [],
     outputSize: 0,
     writable: true,
     _last: true,
     upgrading: false,
     chunkedEncoding: false,
     shouldKeepAlive: false,
     useChunkedEncodingByDefault: false,
     sendDate: false,
     _removedHeader: {},
     _contentLength: 0,
     _hasBody: true,
     _trailer: '',
     finished: true,
     _headerSent: true,
     socket: 
      Socket {
        connecting: false,
        _hadError: false,
        _handle: null,
        _parent: null,
        _host: 'localhost',
        _readableState: [Object],
        readable: false,
        domain: null,
        _events: [Object],
        _eventsCount: 8,
        _maxListeners: undefined,
        _writableState: [Object],
        writable: false,
        allowHalfOpen: false,
        destroyed: true,
        _bytesDispatched: 96,
        _sockname: null,
        _pendingData: null,
        _pendingEncoding: '',
        server: null,
        _server: null,
        parser: null,
        _httpMessage: [Circular],
        read: [Function],
        _consuming: true,
        _idleNext: null,
        _idlePrev: null,
        _idleTimeout: -1 },
     connection: 
      Socket {
        connecting: false,
        _hadError: false,
        _handle: null,
        _parent: null,
        _host: 'localhost',
        _readableState: [Object],
        readable: false,
        domain: null,
        _events: [Object],
        _eventsCount: 8,
        _maxListeners: undefined,
        _writableState: [Object],
        writable: false,
        allowHalfOpen: false,
        destroyed: true,
        _bytesDispatched: 96,
        _sockname: null,
        _pendingData: null,
        _pendingEncoding: '',
        server: null,
        _server: null,
        parser: null,
        _httpMessage: [Circular],
        read: [Function],
        _consuming: true,
        _idleNext: null,
        _idlePrev: null,
        _idleTimeout: -1 },
     _header: 'GET /api/v1/commands/?cmd=volume&volume=41 HTTP/1.1\r\nHost: localhost:3000\r\nConnection: close\r\n\r\n',
     _headers: { host: 'localhost:3000' },
     _headerNames: { host: 'Host' },
     _onPendingData: null,
     agent: 
      Agent {
        domain: null,
        _events: [Object],
        _eventsCount: 1,
        _maxListeners: undefined,
        defaultPort: 80,
        protocol: 'http:',
        options: [Object],
        requests: {},
        sockets: [Object],
        freeSockets: {},
        keepAliveMsecs: 1000,
        keepAlive: false,
        maxSockets: Infinity,
        maxFreeSockets: 256 },
     socketPath: undefined,
     timeout: undefined,
     method: 'GET',
     path: '/api/v1/commands/?cmd=volume&volume=41',
     _ended: true,
     _redirectable: 
      Writable {
        _writableState: [Object],
        writable: true,
        domain: null,
        _events: [Object],
        _eventsCount: 2,
        _maxListeners: undefined,
        _redirectCount: 0,
        _onNativeResponse: [Function],
        _currentRequest: [Circular],
        _currentUrl: 'http://localhost/api/v1/commands/?cmd=volume&volume=41' },
     parser: null,
     res: [Circular] },
  responseUrl: 'http://localhost/api/v1/commands/?cmd=volume&volume=41',
  read: [Function] }
{ time: 1503758594680, response: 'volume Success' }
IncomingMessage {
  _readableState: 
   ReadableState {
     objectMode: false,
     highWaterMark: 16384,
     buffer: BufferList { head: null, tail: null, length: 0 },
     length: 0,
     pipes: null,
     pipesCount: 0,
     flowing: true,
     ended: true,
     endEmitted: true,
     reading: false,
     sync: true,
     needReadable: false,
     emittedReadable: false,
     readableListening: false,
     resumeScheduled: false,
     defaultEncoding: 'utf8',
     ranOut: false,
     awaitDrain: 0,
     readingMore: false,
     decoder: null,
     encoding: null },
  readable: false,
  domain: null,
  _events: 
   { end: [ [Function: responseOnEnd], [Function] ],
     data: [Function],
     error: [Function] },
  _eventsCount: 3,
  _maxListeners: undefined,
  socket: 
   Socket {
     connecting: false,
     _hadError: false,
     _handle: null,
     _parent: null,
     _host: 'localhost',
     _readableState: 
      ReadableState {
        objectMode: false,
        highWaterMark: 16384,
        buffer: [Object],
        length: 0,
        pipes: null,
        pipesCount: 0,
        flowing: true,
        ended: false,
        endEmitted: false,
        reading: true,
        sync: false,
        needReadable: true,
        emittedReadable: false,
        readableListening: false,
        resumeScheduled: false,
        defaultEncoding: 'utf8',
        ranOut: false,
        awaitDrain: 0,
        readingMore: false,
        decoder: null,
        encoding: null },
     readable: false,
     domain: null,
     _events: 
      { end: [Object],
        finish: [Function: onSocketFinish],
        _socketEnd: [Function: onSocketEnd],
        free: [Function: onFree],
        close: [Object],
        agentRemove: [Function: onRemove],
        drain: [Function: ondrain],
        error: [Function: socketErrorListener] },
     _eventsCount: 8,
     _maxListeners: undefined,
     _writableState: 
      WritableState {
        objectMode: false,
        highWaterMark: 16384,
        needDrain: false,
        ending: true,
        ended: true,
        finished: true,
        decodeStrings: false,
        defaultEncoding: 'utf8',
        length: 0,
        writing: false,
        corked: 0,
        sync: false,
        bufferProcessing: false,
        onwrite: [Function],
        writecb: null,
        writelen: 0,
        bufferedRequest: null,
        lastBufferedRequest: null,
        pendingcb: 0,
        prefinished: true,
        errorEmitted: false,
        bufferedRequestCount: 0,
        corkedRequestsFree: [Object] },
     writable: false,
     allowHalfOpen: false,
     destroyed: true,
     _bytesDispatched: 96,
     _sockname: null,
     _pendingData: null,
     _pendingEncoding: '',
     server: null,
     _server: null,
     parser: null,
     _httpMessage: 
      ClientRequest {
        domain: null,
        _events: [Object],
        _eventsCount: 5,
        _maxListeners: undefined,
        output: [],
        outputEncodings: [],
        outputCallbacks: [],
        outputSize: 0,
        writable: true,
        _last: true,
        upgrading: false,
        chunkedEncoding: false,
        shouldKeepAlive: false,
        useChunkedEncodingByDefault: false,
        sendDate: false,
        _removedHeader: {},
        _contentLength: 0,
        _hasBody: true,
        _trailer: '',
        finished: true,
        _headerSent: true,
        socket: [Circular],
        connection: [Circular],
        _header: 'GET /api/v1/commands/?cmd=volume&volume=40 HTTP/1.1\r\nHost: localhost:3000\r\nConnection: close\r\n\r\n',
        _headers: [Object],
        _headerNames: [Object],
        _onPendingData: null,
        agent: [Object],
        socketPath: undefined,
        timeout: undefined,
        method: 'GET',
        path: '/api/v1/commands/?cmd=volume&volume=40',
        _ended: true,
        _redirectable: [Object],
        parser: null,
        res: [Circular] },
     read: [Function],
     _consuming: true,
     _idleNext: null,
     _idlePrev: null,
     _idleTimeout: -1 },
  connection: 
   Socket {
     connecting: false,
     _hadError: false,
     _handle: null,
     _parent: null,
     _host: 'localhost',
     _readableState: 
      ReadableState {
        objectMode: false,
        highWaterMark: 16384,
        buffer: [Object],
        length: 0,
        pipes: null,
        pipesCount: 0,
        flowing: true,
        ended: false,
        endEmitted: false,
        reading: true,
        sync: false,
        needReadable: true,
        emittedReadable: false,
        readableListening: false,
        resumeScheduled: false,
        defaultEncoding: 'utf8',
        ranOut: false,
        awaitDrain: 0,
        readingMore: false,
        decoder: null,
        encoding: null },
     readable: false,
     domain: null,
     _events: 
      { end: [Object],
        finish: [Function: onSocketFinish],
        _socketEnd: [Function: onSocketEnd],
        free: [Function: onFree],
        close: [Object],
        agentRemove: [Function: onRemove],
        drain: [Function: ondrain],
        error: [Function: socketErrorListener] },
     _eventsCount: 8,
     _maxListeners: undefined,
     _writableState: 
      WritableState {
        objectMode: false,
        highWaterMark: 16384,
        needDrain: false,
        ending: true,
        ended: true,
        finished: true,
        decodeStrings: false,
        defaultEncoding: 'utf8',
        length: 0,
        writing: false,
        corked: 0,
        sync: false,
        bufferProcessing: false,
        onwrite: [Function],
        writecb: null,
        writelen: 0,
        bufferedRequest: null,
        lastBufferedRequest: null,
        pendingcb: 0,
        prefinished: true,
        errorEmitted: false,
        bufferedRequestCount: 0,
        corkedRequestsFree: [Object] },
     writable: false,
     allowHalfOpen: false,
     destroyed: true,
     _bytesDispatched: 96,
     _sockname: null,
     _pendingData: null,
     _pendingEncoding: '',
     server: null,
     _server: null,
     parser: null,
     _httpMessage: 
      ClientRequest {
        domain: null,
        _events: [Object],
        _eventsCount: 5,
        _maxListeners: undefined,
        output: [],
        outputEncodings: [],
        outputCallbacks: [],
        outputSize: 0,
        writable: true,
        _last: true,
        upgrading: false,
        chunkedEncoding: false,
        shouldKeepAlive: false,
        useChunkedEncodingByDefault: false,
        sendDate: false,
        _removedHeader: {},
        _contentLength: 0,
        _hasBody: true,
        _trailer: '',
        finished: true,
        _headerSent: true,
        socket: [Circular],
        connection: [Circular],
        _header: 'GET /api/v1/commands/?cmd=volume&volume=40 HTTP/1.1\r\nHost: localhost:3000\r\nConnection: close\r\n\r\n',
        _headers: [Object],
        _headerNames: [Object],
        _onPendingData: null,
        agent: [Object],
        socketPath: undefined,
        timeout: undefined,
        method: 'GET',
        path: '/api/v1/commands/?cmd=volume&volume=40',
        _ended: true,
        _redirectable: [Object],
        parser: null,
        res: [Circular] },
     read: [Function],
     _consuming: true,
     _idleNext: null,
     _idlePrev: null,
     _idleTimeout: -1 },
  httpVersionMajor: 1,
  httpVersionMinor: 1,
  httpVersion: '1.1',
  complete: true,
  headers: 
   { 'x-powered-by': 'Express',
     'access-control-allow-origin': '*',
     'access-control-allow-methods': 'GET,PUT,POST,DELETE,OPTIONS',
     'access-control-allow-headers': 'Content-Type, Authorization, Content-Length, X-Requested-With',
     'content-type': 'application/json; charset=utf-8',
     'content-length': '50',
     etag: 'W/"32-r/pJEmeCgY2dmiGBX7wprXSYdeI"',
     vary: 'Accept-Encoding',
     date: 'Sat, 26 Aug 2017 14:43:14 GMT',
     connection: 'close' },
  rawHeaders: 
   [ 'X-Powered-By',
     'Express',
     'Access-Control-Allow-Origin',
     '*',
     'Access-Control-Allow-Methods',
     'GET,PUT,POST,DELETE,OPTIONS',
     'Access-Control-Allow-Headers',
     'Content-Type, Authorization, Content-Length, X-Requested-With',
     'Content-Type',
     'application/json; charset=utf-8',
     'Content-Length',
     '50',
     'ETag',
     'W/"32-r/pJEmeCgY2dmiGBX7wprXSYdeI"',
     'Vary',
     'Accept-Encoding',
     'Date',
     'Sat, 26 Aug 2017 14:43:14 GMT',
     'Connection',
     'close' ],
  trailers: {},
  rawTrailers: [],
  upgrade: false,
  url: '',
  method: null,
  statusCode: 200,
  statusMessage: 'OK',
  client: 
   Socket {
     connecting: false,
     _hadError: false,
     _handle: null,
     _parent: null,
     _host: 'localhost',
     _readableState: 
      ReadableState {
        objectMode: false,
        highWaterMark: 16384,
        buffer: [Object],
        length: 0,
        pipes: null,
        pipesCount: 0,
        flowing: true,
        ended: false,
        endEmitted: false,
        reading: true,
        sync: false,
        needReadable: true,
        emittedReadable: false,
        readableListening: false,
        resumeScheduled: false,
        defaultEncoding: 'utf8',
        ranOut: false,
        awaitDrain: 0,
        readingMore: false,
        decoder: null,
        encoding: null },
     readable: false,
     domain: null,
     _events: 
      { end: [Object],
        finish: [Function: onSocketFinish],
        _socketEnd: [Function: onSocketEnd],
        free: [Function: onFree],
        close: [Object],
        agentRemove: [Function: onRemove],
        drain: [Function: ondrain],
        error: [Function: socketErrorListener] },
     _eventsCount: 8,
     _maxListeners: undefined,
     _writableState: 
      WritableState {
        objectMode: false,
        highWaterMark: 16384,
        needDrain: false,
        ending: true,
        ended: true,
        finished: true,
        decodeStrings: false,
        defaultEncoding: 'utf8',
        length: 0,
        writing: false,
        corked: 0,
        sync: false,
        bufferProcessing: false,
        onwrite: [Function],
        writecb: null,
        writelen: 0,
        bufferedRequest: null,
        lastBufferedRequest: null,
        pendingcb: 0,
        prefinished: true,
        errorEmitted: false,
        bufferedRequestCount: 0,
        corkedRequestsFree: [Object] },
     writable: false,
     allowHalfOpen: false,
     destroyed: true,
     _bytesDispatched: 96,
     _sockname: null,
     _pendingData: null,
     _pendingEncoding: '',
     server: null,
     _server: null,
     parser: null,
     _httpMessage: 
      ClientRequest {
        domain: null,
        _events: [Object],
        _eventsCount: 5,
        _maxListeners: undefined,
        output: [],
        outputEncodings: [],
        outputCallbacks: [],
        outputSize: 0,
        writable: true,
        _last: true,
        upgrading: false,
        chunkedEncoding: false,
        shouldKeepAlive: false,
        useChunkedEncodingByDefault: false,
        sendDate: false,
        _removedHeader: {},
        _contentLength: 0,
        _hasBody: true,
        _trailer: '',
        finished: true,
        _headerSent: true,
        socket: [Circular],
        connection: [Circular],
        _header: 'GET /api/v1/commands/?cmd=volume&volume=40 HTTP/1.1\r\nHost: localhost:3000\r\nConnection: close\r\n\r\n',
        _headers: [Object],
        _headerNames: [Object],
        _onPendingData: null,
        agent: [Object],
        socketPath: undefined,
        timeout: undefined,
        method: 'GET',
        path: '/api/v1/commands/?cmd=volume&volume=40',
        _ended: true,
        _redirectable: [Object],
        parser: null,
        res: [Circular] },
     read: [Function],
     _consuming: true,
     _idleNext: null,
     _idlePrev: null,
     _idleTimeout: -1 },
  _consuming: true,
  _dumped: false,
  req: 
   ClientRequest {
     domain: null,
     _events: 
      { socket: [Object],
        abort: [Function],
        aborted: [Function],
        error: [Function],
        prefinish: [Function: requestOnPrefinish] },
     _eventsCount: 5,
     _maxListeners: undefined,
     output: [],
     outputEncodings: [],
     outputCallbacks: [],
     outputSize: 0,
     writable: true,
     _last: true,
     upgrading: false,
     chunkedEncoding: false,
     shouldKeepAlive: false,
     useChunkedEncodingByDefault: false,
     sendDate: false,
     _removedHeader: {},
     _contentLength: 0,
     _hasBody: true,
     _trailer: '',
     finished: true,
     _headerSent: true,
     socket: 
      Socket {
        connecting: false,
        _hadError: false,
        _handle: null,
        _parent: null,
        _host: 'localhost',
        _readableState: [Object],
        readable: false,
        domain: null,
        _events: [Object],
        _eventsCount: 8,
        _maxListeners: undefined,
        _writableState: [Object],
        writable: false,
        allowHalfOpen: false,
        destroyed: true,
        _bytesDispatched: 96,
        _sockname: null,
        _pendingData: null,
        _pendingEncoding: '',
        server: null,
        _server: null,
        parser: null,
        _httpMessage: [Circular],
        read: [Function],
        _consuming: true,
        _idleNext: null,
        _idlePrev: null,
        _idleTimeout: -1 },
     connection: 
      Socket {
        connecting: false,
        _hadError: false,
        _handle: null,
        _parent: null,
        _host: 'localhost',
        _readableState: [Object],
        readable: false,
        domain: null,
        _events: [Object],
        _eventsCount: 8,
        _maxListeners: undefined,
        _writableState: [Object],
        writable: false,
        allowHalfOpen: false,
        destroyed: true,
        _bytesDispatched: 96,
        _sockname: null,
        _pendingData: null,
        _pendingEncoding: '',
        server: null,
        _server: null,
        parser: null,
        _httpMessage: [Circular],
        read: [Function],
        _consuming: true,
        _idleNext: null,
        _idlePrev: null,
        _idleTimeout: -1 },
     _header: 'GET /api/v1/commands/?cmd=volume&volume=40 HTTP/1.1\r\nHost: localhost:3000\r\nConnection: close\r\n\r\n',
     _headers: { host: 'localhost:3000' },
     _headerNames: { host: 'Host' },
     _onPendingData: null,
     agent: 
      Agent {
        domain: null,
        _events: [Object],
        _eventsCount: 1,
        _maxListeners: undefined,
        defaultPort: 80,
        protocol: 'http:',
        options: [Object],
        requests: {},
        sockets: [Object],
        freeSockets: {},
        keepAliveMsecs: 1000,
        keepAlive: false,
        maxSockets: Infinity,
        maxFreeSockets: 256 },
     socketPath: undefined,
     timeout: undefined,
     method: 'GET',
     path: '/api/v1/commands/?cmd=volume&volume=40',
     _ended: true,
     _redirectable: 
      Writable {
        _writableState: [Object],
        writable: true,
        domain: null,
        _events: [Object],
        _eventsCount: 2,
        _maxListeners: undefined,
        _redirectCount: 0,
        _onNativeResponse: [Function],
        _currentRequest: [Circular],
        _currentUrl: 'http://localhost/api/v1/commands/?cmd=volume&volume=40' },
     parser: null,
     res: [Circular] },
  responseUrl: 'http://localhost/api/v1/commands/?cmd=volume&volume=40',
  read: [Function] }
{ time: 1503758594706, response: 'volume Success' }
IncomingMessage {
  _readableState: 
   ReadableState {
     objectMode: false,
     highWaterMark: 16384,
     buffer: BufferList { head: null, tail: null, length: 0 },
     length: 0,
     pipes: null,
     pipesCount: 0,
     flowing: true,
     ended: true,
     endEmitted: true,
     reading: false,
     sync: true,
     needReadable: false,
     emittedReadable: false,
     readableListening: false,
     resumeScheduled: false,
     defaultEncoding: 'utf8',
     ranOut: false,
     awaitDrain: 0,
     readingMore: false,
     decoder: null,
     encoding: null },
  readable: false,
  domain: null,
  _events: 
   { end: [ [Function: responseOnEnd], [Function] ],
     data: [Function],
     error: [Function] },
  _eventsCount: 3,
  _maxListeners: undefined,
  socket: 
   Socket {
     connecting: false,
     _hadError: false,
     _handle: null,
     _parent: null,
     _host: 'localhost',
     _readableState: 
      ReadableState {
        objectMode: false,
        highWaterMark: 16384,
        buffer: [Object],
        length: 0,
        pipes: null,
        pipesCount: 0,
        flowing: true,
        ended: false,
        endEmitted: false,
        reading: true,
        sync: false,
        needReadable: true,
        emittedReadable: false,
        readableListening: false,
        resumeScheduled: false,
        defaultEncoding: 'utf8',
        ranOut: false,
        awaitDrain: 0,
        readingMore: false,
        decoder: null,
        encoding: null },
     readable: false,
     domain: null,
     _events: 
      { end: [Object],
        finish: [Function: onSocketFinish],
        _socketEnd: [Function: onSocketEnd],
        free: [Function: onFree],
        close: [Object],
        agentRemove: [Function: onRemove],
        drain: [Function: ondrain],
        error: [Function: socketErrorListener] },
     _eventsCount: 8,
     _maxListeners: undefined,
     _writableState: 
      WritableState {
        objectMode: false,
        highWaterMark: 16384,
        needDrain: false,
        ending: true,
        ended: true,
        finished: true,
        decodeStrings: false,
        defaultEncoding: 'utf8',
        length: 0,
        writing: false,
        corked: 0,
        sync: false,
        bufferProcessing: false,
        onwrite: [Function],
        writecb: null,
        writelen: 0,
        bufferedRequest: null,
        lastBufferedRequest: null,
        pendingcb: 0,
        prefinished: true,
        errorEmitted: false,
        bufferedRequestCount: 0,
        corkedRequestsFree: [Object] },
     writable: false,
     allowHalfOpen: false,
     destroyed: true,
     _bytesDispatched: 96,
     _sockname: null,
     _pendingData: null,
     _pendingEncoding: '',
     server: null,
     _server: null,
     parser: null,
     _httpMessage: 
      ClientRequest {
        domain: null,
        _events: [Object],
        _eventsCount: 5,
        _maxListeners: undefined,
        output: [],
        outputEncodings: [],
        outputCallbacks: [],
        outputSize: 0,
        writable: true,
        _last: true,
        upgrading: false,
        chunkedEncoding: false,
        shouldKeepAlive: false,
        useChunkedEncodingByDefault: false,
        sendDate: false,
        _removedHeader: {},
        _contentLength: 0,
        _hasBody: true,
        _trailer: '',
        finished: true,
        _headerSent: true,
        socket: [Circular],
        connection: [Circular],
        _header: 'GET /api/v1/commands/?cmd=volume&volume=39 HTTP/1.1\r\nHost: localhost:3000\r\nConnection: close\r\n\r\n',
        _headers: [Object],
        _headerNames: [Object],
        _onPendingData: null,
        agent: [Object],
        socketPath: undefined,
        timeout: undefined,
        method: 'GET',
        path: '/api/v1/commands/?cmd=volume&volume=39',
        _ended: true,
        _redirectable: [Object],
        parser: null,
        res: [Circular] },
     read: [Function],
     _consuming: true,
     _idleNext: null,
     _idlePrev: null,
     _idleTimeout: -1 },
  connection: 
   Socket {
     connecting: false,
     _hadError: false,
     _handle: null,
     _parent: null,
     _host: 'localhost',
     _readableState: 
      ReadableState {
        objectMode: false,
        highWaterMark: 16384,
        buffer: [Object],
        length: 0,
        pipes: null,
        pipesCount: 0,
        flowing: true,
        ended: false,
        endEmitted: false,
        reading: true,
        sync: false,
        needReadable: true,
        emittedReadable: false,
        readableListening: false,
        resumeScheduled: false,
        defaultEncoding: 'utf8',
        ranOut: false,
        awaitDrain: 0,
        readingMore: false,
        decoder: null,
        encoding: null },
     readable: false,
     domain: null,
     _events: 
      { end: [Object],
        finish: [Function: onSocketFinish],
        _socketEnd: [Function: onSocketEnd],
        free: [Function: onFree],
        close: [Object],
        agentRemove: [Function: onRemove],
        drain: [Function: ondrain],
        error: [Function: socketErrorListener] },
     _eventsCount: 8,
     _maxListeners: undefined,
     _writableState: 
      WritableState {
        objectMode: false,
        highWaterMark: 16384,
        needDrain: false,
        ending: true,
        ended: true,
        finished: true,
        decodeStrings: false,
        defaultEncoding: 'utf8',
        length: 0,
        writing: false,
        corked: 0,
        sync: false,
        bufferProcessing: false,
        onwrite: [Function],
        writecb: null,
        writelen: 0,
        bufferedRequest: null,
        lastBufferedRequest: null,
        pendingcb: 0,
        prefinished: true,
        errorEmitted: false,
        bufferedRequestCount: 0,
        corkedRequestsFree: [Object] },
     writable: false,
     allowHalfOpen: false,
     destroyed: true,
     _bytesDispatched: 96,
     _sockname: null,
     _pendingData: null,
     _pendingEncoding: '',
     server: null,
     _server: null,
     parser: null,
     _httpMessage: 
      ClientRequest {
        domain: null,
        _events: [Object],
        _eventsCount: 5,
        _maxListeners: undefined,
        output: [],
        outputEncodings: [],
        outputCallbacks: [],
        outputSize: 0,
        writable: true,
        _last: true,
        upgrading: false,
        chunkedEncoding: false,
        shouldKeepAlive: false,
        useChunkedEncodingByDefault: false,
        sendDate: false,
        _removedHeader: {},
        _contentLength: 0,
        _hasBody: true,
        _trailer: '',
        finished: true,
        _headerSent: true,
        socket: [Circular],
        connection: [Circular],
        _header: 'GET /api/v1/commands/?cmd=volume&volume=39 HTTP/1.1\r\nHost: localhost:3000\r\nConnection: close\r\n\r\n',
        _headers: [Object],
        _headerNames: [Object],
        _onPendingData: null,
        agent: [Object],
        socketPath: undefined,
        timeout: undefined,
        method: 'GET',
        path: '/api/v1/commands/?cmd=volume&volume=39',
        _ended: true,
        _redirectable: [Object],
        parser: null,
        res: [Circular] },
     read: [Function],
     _consuming: true,
     _idleNext: null,
     _idlePrev: null,
     _idleTimeout: -1 },
  httpVersionMajor: 1,
  httpVersionMinor: 1,
  httpVersion: '1.1',
  complete: true,
  headers: 
   { 'x-powered-by': 'Express',
     'access-control-allow-origin': '*',
     'access-control-allow-methods': 'GET,PUT,POST,DELETE,OPTIONS',
     'access-control-allow-headers': 'Content-Type, Authorization, Content-Length, X-Requested-With',
     'content-type': 'application/json; charset=utf-8',
     'content-length': '50',
     etag: 'W/"32-PrE2Y347Ryc326752jw4uqLcyPE"',
     vary: 'Accept-Encoding',
     date: 'Sat, 26 Aug 2017 14:43:14 GMT',
     connection: 'close' },
  rawHeaders: 
   [ 'X-Powered-By',
     'Express',
     'Access-Control-Allow-Origin',
     '*',
     'Access-Control-Allow-Methods',
     'GET,PUT,POST,DELETE,OPTIONS',
     'Access-Control-Allow-Headers',
     'Content-Type, Authorization, Content-Length, X-Requested-With',
     'Content-Type',
     'application/json; charset=utf-8',
     'Content-Length',
     '50',
     'ETag',
     'W/"32-PrE2Y347Ryc326752jw4uqLcyPE"',
     'Vary',
     'Accept-Encoding',
     'Date',
     'Sat, 26 Aug 2017 14:43:14 GMT',
     'Connection',
     'close' ],
  trailers: {},
  rawTrailers: [],
  upgrade: false,
  url: '',
  method: null,
  statusCode: 200,
  statusMessage: 'OK',
  client: 
   Socket {
     connecting: false,
     _hadError: false,
     _handle: null,
     _parent: null,
     _host: 'localhost',
     _readableState: 
      ReadableState {
        objectMode: false,
        highWaterMark: 16384,
        buffer: [Object],
        length: 0,
        pipes: null,
        pipesCount: 0,
        flowing: true,
        ended: false,
        endEmitted: false,
        reading: true,
        sync: false,
        needReadable: true,
        emittedReadable: false,
        readableListening: false,
        resumeScheduled: false,
        defaultEncoding: 'utf8',
        ranOut: false,
        awaitDrain: 0,
        readingMore: false,
        decoder: null,
        encoding: null },
     readable: false,
     domain: null,
     _events: 
      { end: [Object],
        finish: [Function: onSocketFinish],
        _socketEnd: [Function: onSocketEnd],
        free: [Function: onFree],
        close: [Object],
        agentRemove: [Function: onRemove],
        drain: [Function: ondrain],
        error: [Function: socketErrorListener] },
     _eventsCount: 8,
     _maxListeners: undefined,
     _writableState: 
      WritableState {
        objectMode: false,
        highWaterMark: 16384,
        needDrain: false,
        ending: true,
        ended: true,
        finished: true,
        decodeStrings: false,
        defaultEncoding: 'utf8',
        length: 0,
        writing: false,
        corked: 0,
        sync: false,
        bufferProcessing: false,
        onwrite: [Function],
        writecb: null,
        writelen: 0,
        bufferedRequest: null,
        lastBufferedRequest: null,
        pendingcb: 0,
        prefinished: true,
        errorEmitted: false,
        bufferedRequestCount: 0,
        corkedRequestsFree: [Object] },
     writable: false,
     allowHalfOpen: false,
     destroyed: true,
     _bytesDispatched: 96,
     _sockname: null,
     _pendingData: null,
     _pendingEncoding: '',
     server: null,
     _server: null,
     parser: null,
     _httpMessage: 
      ClientRequest {
        domain: null,
        _events: [Object],
        _eventsCount: 5,
        _maxListeners: undefined,
        output: [],
        outputEncodings: [],
        outputCallbacks: [],
        outputSize: 0,
        writable: true,
        _last: true,
        upgrading: false,
        chunkedEncoding: false,
        shouldKeepAlive: false,
        useChunkedEncodingByDefault: false,
        sendDate: false,
        _removedHeader: {},
        _contentLength: 0,
        _hasBody: true,
        _trailer: '',
        finished: true,
        _headerSent: true,
        socket: [Circular],
        connection: [Circular],
        _header: 'GET /api/v1/commands/?cmd=volume&volume=39 HTTP/1.1\r\nHost: localhost:3000\r\nConnection: close\r\n\r\n',
        _headers: [Object],
        _headerNames: [Object],
        _onPendingData: null,
        agent: [Object],
        socketPath: undefined,
        timeout: undefined,
        method: 'GET',
        path: '/api/v1/commands/?cmd=volume&volume=39',
        _ended: true,
        _redirectable: [Object],
        parser: null,
        res: [Circular] },
     read: [Function],
     _consuming: true,
     _idleNext: null,
     _idlePrev: null,
     _idleTimeout: -1 },
  _consuming: true,
  _dumped: false,
  req: 
   ClientRequest {
     domain: null,
     _events: 
      { socket: [Object],
        abort: [Function],
        aborted: [Function],
        error: [Function],
        prefinish: [Function: requestOnPrefinish] },
     _eventsCount: 5,
     _maxListeners: undefined,
     output: [],
     outputEncodings: [],
     outputCallbacks: [],
     outputSize: 0,
     writable: true,
     _last: true,
     upgrading: false,
     chunkedEncoding: false,
     shouldKeepAlive: false,
     useChunkedEncodingByDefault: false,
     sendDate: false,
     _removedHeader: {},
     _contentLength: 0,
     _hasBody: true,
     _trailer: '',
     finished: true,
     _headerSent: true,
     socket: 
      Socket {
        connecting: false,
        _hadError: false,
        _handle: null,
        _parent: null,
        _host: 'localhost',
        _readableState: [Object],
        readable: false,
        domain: null,
        _events: [Object],
        _eventsCount: 8,
        _maxListeners: undefined,
        _writableState: [Object],
        writable: false,
        allowHalfOpen: false,
        destroyed: true,
        _bytesDispatched: 96,
        _sockname: null,
        _pendingData: null,
        _pendingEncoding: '',
        server: null,
        _server: null,
        parser: null,
        _httpMessage: [Circular],
        read: [Function],
        _consuming: true,
        _idleNext: null,
        _idlePrev: null,
        _idleTimeout: -1 },
     connection: 
      Socket {
        connecting: false,
        _hadError: false,
        _handle: null,
        _parent: null,
        _host: 'localhost',
        _readableState: [Object],
        readable: false,
        domain: null,
        _events: [Object],
        _eventsCount: 8,
        _maxListeners: undefined,
        _writableState: [Object],
        writable: false,
        allowHalfOpen: false,
        destroyed: true,
        _bytesDispatched: 96,
        _sockname: null,
        _pendingData: null,
        _pendingEncoding: '',
        server: null,
        _server: null,
        parser: null,
        _httpMessage: [Circular],
        read: [Function],
        _consuming: true,
        _idleNext: null,
        _idlePrev: null,
        _idleTimeout: -1 },
     _header: 'GET /api/v1/commands/?cmd=volume&volume=39 HTTP/1.1\r\nHost: localhost:3000\r\nConnection: close\r\n\r\n',
     _headers: { host: 'localhost:3000' },
     _headerNames: { host: 'Host' },
     _onPendingData: null,
     agent: 
      Agent {
        domain: null,
        _events: [Object],
        _eventsCount: 1,
        _maxListeners: undefined,
        defaultPort: 80,
        protocol: 'http:',
        options: [Object],
        requests: {},
        sockets: [Object],
        freeSockets: {},
        keepAliveMsecs: 1000,
        keepAlive: false,
        maxSockets: Infinity,
        maxFreeSockets: 256 },
     socketPath: undefined,
     timeout: undefined,
     method: 'GET',
     path: '/api/v1/commands/?cmd=volume&volume=39',
     _ended: true,
     _redirectable: 
      Writable {
        _writableState: [Object],
        writable: true,
        domain: null,
        _events: [Object],
        _eventsCount: 2,
        _maxListeners: undefined,
        _redirectCount: 0,
        _onNativeResponse: [Function],
        _currentRequest: [Circular],
        _currentUrl: 'http://localhost/api/v1/commands/?cmd=volume&volume=39' },
     parser: null,
     res: [Circular] },
  responseUrl: 'http://localhost/api/v1/commands/?cmd=volume&volume=39',
  read: [Function] }
{ time: 1503758594738, response: 'volume Success' }
IncomingMessage {
  _readableState: 
   ReadableState {
     objectMode: false,
     highWaterMark: 16384,
     buffer: BufferList { head: null, tail: null, length: 0 },
     length: 0,
     pipes: null,
     pipesCount: 0,
     flowing: true,
     ended: true,
     endEmitted: true,
     reading: false,
     sync: true,
     needReadable: false,
     emittedReadable: false,
     readableListening: false,
     resumeScheduled: false,
     defaultEncoding: 'utf8',
     ranOut: false,
     awaitDrain: 0,
     readingMore: false,
     decoder: null,
     encoding: null },
  readable: false,
  domain: null,
  _events: 
   { end: [ [Function: responseOnEnd], [Function] ],
     data: [Function],
     error: [Function] },
  _eventsCount: 3,
  _maxListeners: undefined,
  socket: 
   Socket {
     connecting: false,
     _hadError: false,
     _handle: null,
     _parent: null,
     _host: 'localhost',
     _readableState: 
      ReadableState {
        objectMode: false,
        highWaterMark: 16384,
        buffer: [Object],
        length: 0,
        pipes: null,
        pipesCount: 0,
        flowing: true,
        ended: false,
        endEmitted: false,
        reading: true,
        sync: false,
        needReadable: true,
        emittedReadable: false,
        readableListening: false,
        resumeScheduled: false,
        defaultEncoding: 'utf8',
        ranOut: false,
        awaitDrain: 0,
        readingMore: false,
        decoder: null,
        encoding: null },
     readable: false,
     domain: null,
     _events: 
      { end: [Object],
        finish: [Function: onSocketFinish],
        _socketEnd: [Function: onSocketEnd],
        free: [Function: onFree],
        close: [Object],
        agentRemove: [Function: onRemove],
        drain: [Function: ondrain],
        error: [Function: socketErrorListener] },
     _eventsCount: 8,
     _maxListeners: undefined,
     _writableState: 
      WritableState {
        objectMode: false,
        highWaterMark: 16384,
        needDrain: false,
        ending: true,
        ended: true,
        finished: true,
        decodeStrings: false,
        defaultEncoding: 'utf8',
        length: 0,
        writing: false,
        corked: 0,
        sync: false,
        bufferProcessing: false,
        onwrite: [Function],
        writecb: null,
        writelen: 0,
        bufferedRequest: null,
        lastBufferedRequest: null,
        pendingcb: 0,
        prefinished: true,
        errorEmitted: false,
        bufferedRequestCount: 0,
        corkedRequestsFree: [Object] },
     writable: false,
     allowHalfOpen: false,
     destroyed: true,
     _bytesDispatched: 96,
     _sockname: null,
     _pendingData: null,
     _pendingEncoding: '',
     server: null,
     _server: null,
     parser: null,
     _httpMessage: 
      ClientRequest {
        domain: null,
        _events: [Object],
        _eventsCount: 5,
        _maxListeners: undefined,
        output: [],
        outputEncodings: [],
        outputCallbacks: [],
        outputSize: 0,
        writable: true,
        _last: true,
        upgrading: false,
        chunkedEncoding: false,
        shouldKeepAlive: false,
        useChunkedEncodingByDefault: false,
        sendDate: false,
        _removedHeader: {},
        _contentLength: 0,
        _hasBody: true,
        _trailer: '',
        finished: true,
        _headerSent: true,
        socket: [Circular],
        connection: [Circular],
        _header: 'GET /api/v1/commands/?cmd=volume&volume=37 HTTP/1.1\r\nHost: localhost:3000\r\nConnection: close\r\n\r\n',
        _headers: [Object],
        _headerNames: [Object],
        _onPendingData: null,
        agent: [Object],
        socketPath: undefined,
        timeout: undefined,
        method: 'GET',
        path: '/api/v1/commands/?cmd=volume&volume=37',
        _ended: true,
        _redirectable: [Object],
        parser: null,
        res: [Circular] },
     read: [Function],
     _consuming: true,
     _idleNext: null,
     _idlePrev: null,
     _idleTimeout: -1 },
  connection: 
   Socket {
     connecting: false,
     _hadError: false,
     _handle: null,
     _parent: null,
     _host: 'localhost',
     _readableState: 
      ReadableState {
        objectMode: false,
        highWaterMark: 16384,
        buffer: [Object],
        length: 0,
        pipes: null,
        pipesCount: 0,
        flowing: true,
        ended: false,
        endEmitted: false,
        reading: true,
        sync: false,
        needReadable: true,
        emittedReadable: false,
        readableListening: false,
        resumeScheduled: false,
        defaultEncoding: 'utf8',
        ranOut: false,
        awaitDrain: 0,
        readingMore: false,
        decoder: null,
        encoding: null },
     readable: false,
     domain: null,
     _events: 
      { end: [Object],
        finish: [Function: onSocketFinish],
        _socketEnd: [Function: onSocketEnd],
        free: [Function: onFree],
        close: [Object],
        agentRemove: [Function: onRemove],
        drain: [Function: ondrain],
        error: [Function: socketErrorListener] },
     _eventsCount: 8,
     _maxListeners: undefined,
     _writableState: 
      WritableState {
        objectMode: false,
        highWaterMark: 16384,
        needDrain: false,
        ending: true,
        ended: true,
        finished: true,
        decodeStrings: false,
        defaultEncoding: 'utf8',
        length: 0,
        writing: false,
        corked: 0,
        sync: false,
        bufferProcessing: false,
        onwrite: [Function],
        writecb: null,
        writelen: 0,
        bufferedRequest: null,
        lastBufferedRequest: null,
        pendingcb: 0,
        prefinished: true,
        errorEmitted: false,
        bufferedRequestCount: 0,
        corkedRequestsFree: [Object] },
     writable: false,
     allowHalfOpen: false,
     destroyed: true,
     _bytesDispatched: 96,
     _sockname: null,
     _pendingData: null,
     _pendingEncoding: '',
     server: null,
     _server: null,
     parser: null,
     _httpMessage: 
      ClientRequest {
        domain: null,
        _events: [Object],
        _eventsCount: 5,
        _maxListeners: undefined,
        output: [],
        outputEncodings: [],
        outputCallbacks: [],
        outputSize: 0,
        writable: true,
        _last: true,
        upgrading: false,
        chunkedEncoding: false,
        shouldKeepAlive: false,
        useChunkedEncodingByDefault: false,
        sendDate: false,
        _removedHeader: {},
        _contentLength: 0,
        _hasBody: true,
        _trailer: '',
        finished: true,
        _headerSent: true,
        socket: [Circular],
        connection: [Circular],
        _header: 'GET /api/v1/commands/?cmd=volume&volume=37 HTTP/1.1\r\nHost: localhost:3000\r\nConnection: close\r\n\r\n',
        _headers: [Object],
        _headerNames: [Object],
        _onPendingData: null,
        agent: [Object],
        socketPath: undefined,
        timeout: undefined,
        method: 'GET',
        path: '/api/v1/commands/?cmd=volume&volume=37',
        _ended: true,
        _redirectable: [Object],
        parser: null,
        res: [Circular] },
     read: [Function],
     _consuming: true,
     _idleNext: null,
     _idlePrev: null,
     _idleTimeout: -1 },
  httpVersionMajor: 1,
  httpVersionMinor: 1,
  httpVersion: '1.1',
  complete: true,
  headers: 
   { 'x-powered-by': 'Express',
     'access-control-allow-origin': '*',
     'access-control-allow-methods': 'GET,PUT,POST,DELETE,OPTIONS',
     'access-control-allow-headers': 'Content-Type, Authorization, Content-Length, X-Requested-With',
     'content-type': 'application/json; charset=utf-8',
     'content-length': '50',
     etag: 'W/"32-EszqNNir772W8mJaxalYge+rGuk"',
     vary: 'Accept-Encoding',
     date: 'Sat, 26 Aug 2017 14:43:14 GMT',
     connection: 'close' },
  rawHeaders: 
   [ 'X-Powered-By',
     'Express',
     'Access-Control-Allow-Origin',
     '*',
     'Access-Control-Allow-Methods',
     'GET,PUT,POST,DELETE,OPTIONS',
     'Access-Control-Allow-Headers',
     'Content-Type, Authorization, Content-Length, X-Requested-With',
     'Content-Type',
     'application/json; charset=utf-8',
     'Content-Length',
     '50',
     'ETag',
     'W/"32-EszqNNir772W8mJaxalYge+rGuk"',
     'Vary',
     'Accept-Encoding',
     'Date',
     'Sat, 26 Aug 2017 14:43:14 GMT',
     'Connection',
     'close' ],
  trailers: {},
  rawTrailers: [],
  upgrade: false,
  url: '',
  method: null,
  statusCode: 200,
  statusMessage: 'OK',
  client: 
   Socket {
     connecting: false,
     _hadError: false,
     _handle: null,
     _parent: null,
     _host: 'localhost',
     _readableState: 
      ReadableState {
        objectMode: false,
        highWaterMark: 16384,
        buffer: [Object],
        length: 0,
        pipes: null,
        pipesCount: 0,
        flowing: true,
        ended: false,
        endEmitted: false,
        reading: true,
        sync: false,
        needReadable: true,
        emittedReadable: false,
        readableListening: false,
        resumeScheduled: false,
        defaultEncoding: 'utf8',
        ranOut: false,
        awaitDrain: 0,
        readingMore: false,
        decoder: null,
        encoding: null },
     readable: false,
     domain: null,
     _events: 
      { end: [Object],
        finish: [Function: onSocketFinish],
        _socketEnd: [Function: onSocketEnd],
        free: [Function: onFree],
        close: [Object],
        agentRemove: [Function: onRemove],
        drain: [Function: ondrain],
        error: [Function: socketErrorListener] },
     _eventsCount: 8,
     _maxListeners: undefined,
     _writableState: 
      WritableState {
        objectMode: false,
        highWaterMark: 16384,
        needDrain: false,
        ending: true,
        ended: true,
        finished: true,
        decodeStrings: false,
        defaultEncoding: 'utf8',
        length: 0,
        writing: false,
        corked: 0,
        sync: false,
        bufferProcessing: false,
        onwrite: [Function],
        writecb: null,
        writelen: 0,
        bufferedRequest: null,
        lastBufferedRequest: null,
        pendingcb: 0,
        prefinished: true,
        errorEmitted: false,
        bufferedRequestCount: 0,
        corkedRequestsFree: [Object] },
     writable: false,
     allowHalfOpen: false,
     destroyed: true,
     _bytesDispatched: 96,
     _sockname: null,
     _pendingData: null,
     _pendingEncoding: '',
     server: null,
     _server: null,
     parser: null,
     _httpMessage: 
      ClientRequest {
        domain: null,
        _events: [Object],
        _eventsCount: 5,
        _maxListeners: undefined,
        output: [],
        outputEncodings: [],
        outputCallbacks: [],
        outputSize: 0,
        writable: true,
        _last: true,
        upgrading: false,
        chunkedEncoding: false,
        shouldKeepAlive: false,
        useChunkedEncodingByDefault: false,
        sendDate: false,
        _removedHeader: {},
        _contentLength: 0,
        _hasBody: true,
        _trailer: '',
        finished: true,
        _headerSent: true,
        socket: [Circular],
        connection: [Circular],
        _header: 'GET /api/v1/commands/?cmd=volume&volume=37 HTTP/1.1\r\nHost: localhost:3000\r\nConnection: close\r\n\r\n',
        _headers: [Object],
        _headerNames: [Object],
        _onPendingData: null,
        agent: [Object],
        socketPath: undefined,
        timeout: undefined,
        method: 'GET',
        path: '/api/v1/commands/?cmd=volume&volume=37',
        _ended: true,
        _redirectable: [Object],
        parser: null,
        res: [Circular] },
     read: [Function],
     _consuming: true,
     _idleNext: null,
     _idlePrev: null,
     _idleTimeout: -1 },
  _consuming: true,
  _dumped: false,
  req: 
   ClientRequest {
     domain: null,
     _events: 
      { socket: [Object],
        abort: [Function],
        aborted: [Function],
        error: [Function],
        prefinish: [Function: requestOnPrefinish] },
     _eventsCount: 5,
     _maxListeners: undefined,
     output: [],
     outputEncodings: [],
     outputCallbacks: [],
     outputSize: 0,
     writable: true,
     _last: true,
     upgrading: false,
     chunkedEncoding: false,
     shouldKeepAlive: false,
     useChunkedEncodingByDefault: false,
     sendDate: false,
     _removedHeader: {},
     _contentLength: 0,
     _hasBody: true,
     _trailer: '',
     finished: true,
     _headerSent: true,
     socket: 
      Socket {
        connecting: false,
        _hadError: false,
        _handle: null,
        _parent: null,
        _host: 'localhost',
        _readableState: [Object],
        readable: false,
        domain: null,
        _events: [Object],
        _eventsCount: 8,
        _maxListeners: undefined,
        _writableState: [Object],
        writable: false,
        allowHalfOpen: false,
        destroyed: true,
        _bytesDispatched: 96,
        _sockname: null,
        _pendingData: null,
        _pendingEncoding: '',
        server: null,
        _server: null,
        parser: null,
        _httpMessage: [Circular],
        read: [Function],
        _consuming: true,
        _idleNext: null,
        _idlePrev: null,
        _idleTimeout: -1 },
     connection: 
      Socket {
        connecting: false,
        _hadError: false,
        _handle: null,
        _parent: null,
        _host: 'localhost',
        _readableState: [Object],
        readable: false,
        domain: null,
        _events: [Object],
        _eventsCount: 8,
        _maxListeners: undefined,
        _writableState: [Object],
        writable: false,
        allowHalfOpen: false,
        destroyed: true,
        _bytesDispatched: 96,
        _sockname: null,
        _pendingData: null,
        _pendingEncoding: '',
        server: null,
        _server: null,
        parser: null,
        _httpMessage: [Circular],
        read: [Function],
        _consuming: true,
        _idleNext: null,
        _idlePrev: null,
        _idleTimeout: -1 },
     _header: 'GET /api/v1/commands/?cmd=volume&volume=37 HTTP/1.1\r\nHost: localhost:3000\r\nConnection: close\r\n\r\n',
     _headers: { host: 'localhost:3000' },
     _headerNames: { host: 'Host' },
     _onPendingData: null,
     agent: 
      Agent {
        domain: null,
        _events: [Object],
        _eventsCount: 1,
        _maxListeners: undefined,
        defaultPort: 80,
        protocol: 'http:',
        options: [Object],
        requests: {},
        sockets: [Object],
        freeSockets: {},
        keepAliveMsecs: 1000,
        keepAlive: false,
        maxSockets: Infinity,
        maxFreeSockets: 256 },
     socketPath: undefined,
     timeout: undefined,
     method: 'GET',
     path: '/api/v1/commands/?cmd=volume&volume=37',
     _ended: true,
     _redirectable: 
      Writable {
        _writableState: [Object],
        writable: true,
        domain: null,
        _events: [Object],
        _eventsCount: 2,
        _maxListeners: undefined,
        _redirectCount: 0,
        _onNativeResponse: [Function],
        _currentRequest: [Circular],
        _currentUrl: 'http://localhost/api/v1/commands/?cmd=volume&volume=37' },
     parser: null,
     res: [Circular] },
  responseUrl: 'http://localhost/api/v1/commands/?cmd=volume&volume=37',
  read: [Function] }
{ time: 1503758594778, response: 'volume Success' }
IncomingMessage {
  _readableState: 
   ReadableState {
     objectMode: false,
     highWaterMark: 16384,
     buffer: BufferList { head: null, tail: null, length: 0 },
     length: 0,
     pipes: null,
     pipesCount: 0,
     flowing: true,
     ended: true,
     endEmitted: true,
     reading: false,
     sync: true,
     needReadable: false,
     emittedReadable: false,
     readableListening: false,
     resumeScheduled: false,
     defaultEncoding: 'utf8',
     ranOut: false,
     awaitDrain: 0,
     readingMore: false,
     decoder: null,
     encoding: null },
  readable: false,
  domain: null,
  _events: 
   { end: [ [Function: responseOnEnd], [Function] ],
     data: [Function],
     error: [Function] },
  _eventsCount: 3,
  _maxListeners: undefined,
  socket: 
   Socket {
     connecting: false,
     _hadError: false,
     _handle: null,
     _parent: null,
     _host: 'localhost',
     _readableState: 
      ReadableState {
        objectMode: false,
        highWaterMark: 16384,
        buffer: [Object],
        length: 0,
        pipes: null,
        pipesCount: 0,
        flowing: true,
        ended: false,
        endEmitted: false,
        reading: true,
        sync: false,
        needReadable: true,
        emittedReadable: false,
        readableListening: false,
        resumeScheduled: false,
        defaultEncoding: 'utf8',
        ranOut: false,
        awaitDrain: 0,
        readingMore: false,
        decoder: null,
        encoding: null },
     readable: false,
     domain: null,
     _events: 
      { end: [Object],
        finish: [Function: onSocketFinish],
        _socketEnd: [Function: onSocketEnd],
        free: [Function: onFree],
        close: [Object],
        agentRemove: [Function: onRemove],
        drain: [Function: ondrain],
        error: [Function: socketErrorListener] },
     _eventsCount: 8,
     _maxListeners: undefined,
     _writableState: 
      WritableState {
        objectMode: false,
        highWaterMark: 16384,
        needDrain: false,
        ending: true,
        ended: true,
        finished: true,
        decodeStrings: false,
        defaultEncoding: 'utf8',
        length: 0,
        writing: false,
        corked: 0,
        sync: false,
        bufferProcessing: false,
        onwrite: [Function],
        writecb: null,
        writelen: 0,
        bufferedRequest: null,
        lastBufferedRequest: null,
        pendingcb: 0,
        prefinished: true,
        errorEmitted: false,
        bufferedRequestCount: 0,
        corkedRequestsFree: [Object] },
     writable: false,
     allowHalfOpen: false,
     destroyed: true,
     _bytesDispatched: 96,
     _sockname: null,
     _pendingData: null,
     _pendingEncoding: '',
     server: null,
     _server: null,
     parser: null,
     _httpMessage: 
      ClientRequest {
        domain: null,
        _events: [Object],
        _eventsCount: 5,
        _maxListeners: undefined,
        output: [],
        outputEncodings: [],
        outputCallbacks: [],
        outputSize: 0,
        writable: true,
        _last: true,
        upgrading: false,
        chunkedEncoding: false,
        shouldKeepAlive: false,
        useChunkedEncodingByDefault: false,
        sendDate: false,
        _removedHeader: {},
        _contentLength: 0,
        _hasBody: true,
        _trailer: '',
        finished: true,
        _headerSent: true,
        socket: [Circular],
        connection: [Circular],
        _header: 'GET /api/v1/commands/?cmd=volume&volume=36 HTTP/1.1\r\nHost: localhost:3000\r\nConnection: close\r\n\r\n',
        _headers: [Object],
        _headerNames: [Object],
        _onPendingData: null,
        agent: [Object],
        socketPath: undefined,
        timeout: undefined,
        method: 'GET',
        path: '/api/v1/commands/?cmd=volume&volume=36',
        _ended: true,
        _redirectable: [Object],
        parser: null,
        res: [Circular] },
     read: [Function],
     _consuming: true,
     _idleNext: null,
     _idlePrev: null,
     _idleTimeout: -1 },
  connection: 
   Socket {
     connecting: false,
     _hadError: false,
     _handle: null,
     _parent: null,
     _host: 'localhost',
     _readableState: 
      ReadableState {
        objectMode: false,
        highWaterMark: 16384,
        buffer: [Object],
        length: 0,
        pipes: null,
        pipesCount: 0,
        flowing: true,
        ended: false,
        endEmitted: false,
        reading: true,
        sync: false,
        needReadable: true,
        emittedReadable: false,
        readableListening: false,
        resumeScheduled: false,
        defaultEncoding: 'utf8',
        ranOut: false,
        awaitDrain: 0,
        readingMore: false,
        decoder: null,
        encoding: null },
     readable: false,
     domain: null,
     _events: 
      { end: [Object],
        finish: [Function: onSocketFinish],
        _socketEnd: [Function: onSocketEnd],
        free: [Function: onFree],
        close: [Object],
        agentRemove: [Function: onRemove],
        drain: [Function: ondrain],
        error: [Function: socketErrorListener] },
     _eventsCount: 8,
     _maxListeners: undefined,
     _writableState: 
      WritableState {
        objectMode: false,
        highWaterMark: 16384,
        needDrain: false,
        ending: true,
        ended: true,
        finished: true,
        decodeStrings: false,
        defaultEncoding: 'utf8',
        length: 0,
        writing: false,
        corked: 0,
        sync: false,
        bufferProcessing: false,
        onwrite: [Function],
        writecb: null,
        writelen: 0,
        bufferedRequest: null,
        lastBufferedRequest: null,
        pendingcb: 0,
        prefinished: true,
        errorEmitted: false,
        bufferedRequestCount: 0,
        corkedRequestsFree: [Object] },
     writable: false,
     allowHalfOpen: false,
     destroyed: true,
     _bytesDispatched: 96,
     _sockname: null,
     _pendingData: null,
     _pendingEncoding: '',
     server: null,
     _server: null,
     parser: null,
     _httpMessage: 
      ClientRequest {
        domain: null,
        _events: [Object],
        _eventsCount: 5,
        _maxListeners: undefined,
        output: [],
        outputEncodings: [],
        outputCallbacks: [],
        outputSize: 0,
        writable: true,
        _last: true,
        upgrading: false,
        chunkedEncoding: false,
        shouldKeepAlive: false,
        useChunkedEncodingByDefault: false,
        sendDate: false,
        _removedHeader: {},
        _contentLength: 0,
        _hasBody: true,
        _trailer: '',
        finished: true,
        _headerSent: true,
        socket: [Circular],
        connection: [Circular],
        _header: 'GET /api/v1/commands/?cmd=volume&volume=36 HTTP/1.1\r\nHost: localhost:3000\r\nConnection: close\r\n\r\n',
        _headers: [Object],
        _headerNames: [Object],
        _onPendingData: null,
        agent: [Object],
        socketPath: undefined,
        timeout: undefined,
        method: 'GET',
        path: '/api/v1/commands/?cmd=volume&volume=36',
        _ended: true,
        _redirectable: [Object],
        parser: null,
        res: [Circular] },
     read: [Function],
     _consuming: true,
     _idleNext: null,
     _idlePrev: null,
     _idleTimeout: -1 },
  httpVersionMajor: 1,
  httpVersionMinor: 1,
  httpVersion: '1.1',
  complete: true,
  headers: 
   { 'x-powered-by': 'Express',
     'access-control-allow-origin': '*',
     'access-control-allow-methods': 'GET,PUT,POST,DELETE,OPTIONS',
     'access-control-allow-headers': 'Content-Type, Authorization, Content-Length, X-Requested-With',
     'content-type': 'application/json; charset=utf-8',
     'content-length': '50',
     etag: 'W/"32-c8AHDv4usNH0r0cTZEsHdyH+lKA"',
     vary: 'Accept-Encoding',
     date: 'Sat, 26 Aug 2017 14:43:14 GMT',
     connection: 'close' },
  rawHeaders: 
   [ 'X-Powered-By',
     'Express',
     'Access-Control-Allow-Origin',
     '*',
     'Access-Control-Allow-Methods',
     'GET,PUT,POST,DELETE,OPTIONS',
     'Access-Control-Allow-Headers',
     'Content-Type, Authorization, Content-Length, X-Requested-With',
     'Content-Type',
     'application/json; charset=utf-8',
     'Content-Length',
     '50',
     'ETag',
     'W/"32-c8AHDv4usNH0r0cTZEsHdyH+lKA"',
     'Vary',
     'Accept-Encoding',
     'Date',
     'Sat, 26 Aug 2017 14:43:14 GMT',
     'Connection',
     'close' ],
  trailers: {},
  rawTrailers: [],
  upgrade: false,
  url: '',
  method: null,
  statusCode: 200,
  statusMessage: 'OK',
  client: 
   Socket {
     connecting: false,
     _hadError: false,
     _handle: null,
     _parent: null,
     _host: 'localhost',
     _readableState: 
      ReadableState {
        objectMode: false,
        highWaterMark: 16384,
        buffer: [Object],
        length: 0,
        pipes: null,
        pipesCount: 0,
        flowing: true,
        ended: false,
        endEmitted: false,
        reading: true,
        sync: false,
        needReadable: true,
        emittedReadable: false,
        readableListening: false,
        resumeScheduled: false,
        defaultEncoding: 'utf8',
        ranOut: false,
        awaitDrain: 0,
        readingMore: false,
        decoder: null,
        encoding: null },
     readable: false,
     domain: null,
     _events: 
      { end: [Object],
        finish: [Function: onSocketFinish],
        _socketEnd: [Function: onSocketEnd],
        free: [Function: onFree],
        close: [Object],
        agentRemove: [Function: onRemove],
        drain: [Function: ondrain],
        error: [Function: socketErrorListener] },
     _eventsCount: 8,
     _maxListeners: undefined,
     _writableState: 
      WritableState {
        objectMode: false,
        highWaterMark: 16384,
        needDrain: false,
        ending: true,
        ended: true,
        finished: true,
        decodeStrings: false,
        defaultEncoding: 'utf8',
        length: 0,
        writing: false,
        corked: 0,
        sync: false,
        bufferProcessing: false,
        onwrite: [Function],
        writecb: null,
        writelen: 0,
        bufferedRequest: null,
        lastBufferedRequest: null,
        pendingcb: 0,
        prefinished: true,
        errorEmitted: false,
        bufferedRequestCount: 0,
        corkedRequestsFree: [Object] },
     writable: false,
     allowHalfOpen: false,
     destroyed: true,
     _bytesDispatched: 96,
     _sockname: null,
     _pendingData: null,
     _pendingEncoding: '',
     server: null,
     _server: null,
     parser: null,
     _httpMessage: 
      ClientRequest {
        domain: null,
        _events: [Object],
        _eventsCount: 5,
        _maxListeners: undefined,
        output: [],
        outputEncodings: [],
        outputCallbacks: [],
        outputSize: 0,
        writable: true,
        _last: true,
        upgrading: false,
        chunkedEncoding: false,
        shouldKeepAlive: false,
        useChunkedEncodingByDefault: false,
        sendDate: false,
        _removedHeader: {},
        _contentLength: 0,
        _hasBody: true,
        _trailer: '',
        finished: true,
        _headerSent: true,
        socket: [Circular],
        connection: [Circular],
        _header: 'GET /api/v1/commands/?cmd=volume&volume=36 HTTP/1.1\r\nHost: localhost:3000\r\nConnection: close\r\n\r\n',
        _headers: [Object],
        _headerNames: [Object],
        _onPendingData: null,
        agent: [Object],
        socketPath: undefined,
        timeout: undefined,
        method: 'GET',
        path: '/api/v1/commands/?cmd=volume&volume=36',
        _ended: true,
        _redirectable: [Object],
        parser: null,
        res: [Circular] },
     read: [Function],
     _consuming: true,
     _idleNext: null,
     _idlePrev: null,
     _idleTimeout: -1 },
  _consuming: true,
  _dumped: false,
  req: 
   ClientRequest {
     domain: null,
     _events: 
      { socket: [Object],
        abort: [Function],
        aborted: [Function],
        error: [Function],
        prefinish: [Function: requestOnPrefinish] },
     _eventsCount: 5,
     _maxListeners: undefined,
     output: [],
     outputEncodings: [],
     outputCallbacks: [],
     outputSize: 0,
     writable: true,
     _last: true,
     upgrading: false,
     chunkedEncoding: false,
     shouldKeepAlive: false,
     useChunkedEncodingByDefault: false,
     sendDate: false,
     _removedHeader: {},
     _contentLength: 0,
     _hasBody: true,
     _trailer: '',
     finished: true,
     _headerSent: true,
     socket: 
      Socket {
        connecting: false,
        _hadError: false,
        _handle: null,
        _parent: null,
        _host: 'localhost',
        _readableState: [Object],
        readable: false,
        domain: null,
        _events: [Object],
        _eventsCount: 8,
        _maxListeners: undefined,
        _writableState: [Object],
        writable: false,
        allowHalfOpen: false,
        destroyed: true,
        _bytesDispatched: 96,
        _sockname: null,
        _pendingData: null,
        _pendingEncoding: '',
        server: null,
        _server: null,
        parser: null,
        _httpMessage: [Circular],
        read: [Function],
        _consuming: true,
        _idleNext: null,
        _idlePrev: null,
        _idleTimeout: -1 },
     connection: 
      Socket {
        connecting: false,
        _hadError: false,
        _handle: null,
        _parent: null,
        _host: 'localhost',
        _readableState: [Object],
        readable: false,
        domain: null,
        _events: [Object],
        _eventsCount: 8,
        _maxListeners: undefined,
        _writableState: [Object],
        writable: false,
        allowHalfOpen: false,
        destroyed: true,
        _bytesDispatched: 96,
        _sockname: null,
        _pendingData: null,
        _pendingEncoding: '',
        server: null,
        _server: null,
        parser: null,
        _httpMessage: [Circular],
        read: [Function],
        _consuming: true,
        _idleNext: null,
        _idlePrev: null,
        _idleTimeout: -1 },
     _header: 'GET /api/v1/commands/?cmd=volume&volume=36 HTTP/1.1\r\nHost: localhost:3000\r\nConnection: close\r\n\r\n',
     _headers: { host: 'localhost:3000' },
     _headerNames: { host: 'Host' },
     _onPendingData: null,
     agent: 
      Agent {
        domain: null,
        _events: [Object],
        _eventsCount: 1,
        _maxListeners: undefined,
        defaultPort: 80,
        protocol: 'http:',
        options: [Object],
        requests: {},
        sockets: [Object],
        freeSockets: {},
        keepAliveMsecs: 1000,
        keepAlive: false,
        maxSockets: Infinity,
        maxFreeSockets: 256 },
     socketPath: undefined,
     timeout: undefined,
     method: 'GET',
     path: '/api/v1/commands/?cmd=volume&volume=36',
     _ended: true,
     _redirectable: 
      Writable {
        _writableState: [Object],
        writable: true,
        domain: null,
        _events: [Object],
        _eventsCount: 2,
        _maxListeners: undefined,
        _redirectCount: 0,
        _onNativeResponse: [Function],
        _currentRequest: [Circular],
        _currentUrl: 'http://localhost/api/v1/commands/?cmd=volume&volume=36' },
     parser: null,
     res: [Circular] },
  responseUrl: 'http://localhost/api/v1/commands/?cmd=volume&volume=36',
  read: [Function] }
{ time: 1503758594806, response: 'volume Success' }
IncomingMessage {
  _readableState: 
   ReadableState {
     objectMode: false,
     highWaterMark: 16384,
     buffer: BufferList { head: null, tail: null, length: 0 },
     length: 0,
     pipes: null,
     pipesCount: 0,
     flowing: true,
     ended: true,
     endEmitted: true,
     reading: false,
     sync: true,
     needReadable: false,
     emittedReadable: false,
     readableListening: false,
     resumeScheduled: false,
     defaultEncoding: 'utf8',
     ranOut: false,
     awaitDrain: 0,
     readingMore: false,
     decoder: null,
     encoding: null },
  readable: false,
  domain: null,
  _events: 
   { end: [ [Function: responseOnEnd], [Function] ],
     data: [Function],
     error: [Function] },
  _eventsCount: 3,
  _maxListeners: undefined,
  socket: 
   Socket {
     connecting: false,
     _hadError: false,
     _handle: null,
     _parent: null,
     _host: 'localhost',
     _readableState: 
      ReadableState {
        objectMode: false,
        highWaterMark: 16384,
        buffer: [Object],
        length: 0,
        pipes: null,
        pipesCount: 0,
        flowing: true,
        ended: false,
        endEmitted: false,
        reading: true,
        sync: false,
        needReadable: true,
        emittedReadable: false,
        readableListening: false,
        resumeScheduled: false,
        defaultEncoding: 'utf8',
        ranOut: false,
        awaitDrain: 0,
        readingMore: false,
        decoder: null,
        encoding: null },
     readable: false,
     domain: null,
     _events: 
      { end: [Object],
        finish: [Function: onSocketFinish],
        _socketEnd: [Function: onSocketEnd],
        free: [Function: onFree],
        close: [Object],
        agentRemove: [Function: onRemove],
        drain: [Function: ondrain],
        error: [Function: socketErrorListener] },
     _eventsCount: 8,
     _maxListeners: undefined,
     _writableState: 
      WritableState {
        objectMode: false,
        highWaterMark: 16384,
        needDrain: false,
        ending: true,
        ended: true,
        finished: true,
        decodeStrings: false,
        defaultEncoding: 'utf8',
        length: 0,
        writing: false,
        corked: 0,
        sync: false,
        bufferProcessing: false,
        onwrite: [Function],
        writecb: null,
        writelen: 0,
        bufferedRequest: null,
        lastBufferedRequest: null,
        pendingcb: 0,
        prefinished: true,
        errorEmitted: false,
        bufferedRequestCount: 0,
        corkedRequestsFree: [Object] },
     writable: false,
     allowHalfOpen: false,
     destroyed: true,
     _bytesDispatched: 96,
     _sockname: null,
     _pendingData: null,
     _pendingEncoding: '',
     server: null,
     _server: null,
     parser: null,
     _httpMessage: 
      ClientRequest {
        domain: null,
        _events: [Object],
        _eventsCount: 5,
        _maxListeners: undefined,
        output: [],
        outputEncodings: [],
        outputCallbacks: [],
        outputSize: 0,
        writable: true,
        _last: true,
        upgrading: false,
        chunkedEncoding: false,
        shouldKeepAlive: false,
        useChunkedEncodingByDefault: false,
        sendDate: false,
        _removedHeader: {},
        _contentLength: 0,
        _hasBody: true,
        _trailer: '',
        finished: true,
        _headerSent: true,
        socket: [Circular],
        connection: [Circular],
        _header: 'GET /api/v1/commands/?cmd=volume&volume=35 HTTP/1.1\r\nHost: localhost:3000\r\nConnection: close\r\n\r\n',
        _headers: [Object],
        _headerNames: [Object],
        _onPendingData: null,
        agent: [Object],
        socketPath: undefined,
        timeout: undefined,
        method: 'GET',
        path: '/api/v1/commands/?cmd=volume&volume=35',
        _ended: true,
        _redirectable: [Object],
        parser: null,
        res: [Circular] },
     read: [Function],
     _consuming: true,
     _idleNext: null,
     _idlePrev: null,
     _idleTimeout: -1 },
  connection: 
   Socket {
     connecting: false,
     _hadError: false,
     _handle: null,
     _parent: null,
     _host: 'localhost',
     _readableState: 
      ReadableState {
        objectMode: false,
        highWaterMark: 16384,
        buffer: [Object],
        length: 0,
        pipes: null,
        pipesCount: 0,
        flowing: true,
        ended: false,
        endEmitted: false,
        reading: true,
        sync: false,
        needReadable: true,
        emittedReadable: false,
        readableListening: false,
        resumeScheduled: false,
        defaultEncoding: 'utf8',
        ranOut: false,
        awaitDrain: 0,
        readingMore: false,
        decoder: null,
        encoding: null },
     readable: false,
     domain: null,
     _events: 
      { end: [Object],
        finish: [Function: onSocketFinish],
        _socketEnd: [Function: onSocketEnd],
        free: [Function: onFree],
        close: [Object],
        agentRemove: [Function: onRemove],
        drain: [Function: ondrain],
        error: [Function: socketErrorListener] },
     _eventsCount: 8,
     _maxListeners: undefined,
     _writableState: 
      WritableState {
        objectMode: false,
        highWaterMark: 16384,
        needDrain: false,
        ending: true,
        ended: true,
        finished: true,
        decodeStrings: false,
        defaultEncoding: 'utf8',
        length: 0,
        writing: false,
        corked: 0,
        sync: false,
        bufferProcessing: false,
        onwrite: [Function],
        writecb: null,
        writelen: 0,
        bufferedRequest: null,
        lastBufferedRequest: null,
        pendingcb: 0,
        prefinished: true,
        errorEmitted: false,
        bufferedRequestCount: 0,
        corkedRequestsFree: [Object] },
     writable: false,
     allowHalfOpen: false,
     destroyed: true,
     _bytesDispatched: 96,
     _sockname: null,
     _pendingData: null,
     _pendingEncoding: '',
     server: null,
     _server: null,
     parser: null,
     _httpMessage: 
      ClientRequest {
        domain: null,
        _events: [Object],
        _eventsCount: 5,
        _maxListeners: undefined,
        output: [],
        outputEncodings: [],
        outputCallbacks: [],
        outputSize: 0,
        writable: true,
        _last: true,
        upgrading: false,
        chunkedEncoding: false,
        shouldKeepAlive: false,
        useChunkedEncodingByDefault: false,
        sendDate: false,
        _removedHeader: {},
        _contentLength: 0,
        _hasBody: true,
        _trailer: '',
        finished: true,
        _headerSent: true,
        socket: [Circular],
        connection: [Circular],
        _header: 'GET /api/v1/commands/?cmd=volume&volume=35 HTTP/1.1\r\nHost: localhost:3000\r\nConnection: close\r\n\r\n',
        _headers: [Object],
        _headerNames: [Object],
        _onPendingData: null,
        agent: [Object],
        socketPath: undefined,
        timeout: undefined,
        method: 'GET',
        path: '/api/v1/commands/?cmd=volume&volume=35',
        _ended: true,
        _redirectable: [Object],
        parser: null,
        res: [Circular] },
     read: [Function],
     _consuming: true,
     _idleNext: null,
     _idlePrev: null,
     _idleTimeout: -1 },
  httpVersionMajor: 1,
  httpVersionMinor: 1,
  httpVersion: '1.1',
  complete: true,
  headers: 
   { 'x-powered-by': 'Express',
     'access-control-allow-origin': '*',
     'access-control-allow-methods': 'GET,PUT,POST,DELETE,OPTIONS',
     'access-control-allow-headers': 'Content-Type, Authorization, Content-Length, X-Requested-With',
     'content-type': 'application/json; charset=utf-8',
     'content-length': '50',
     etag: 'W/"32-Duf3yIINIygUU0HrcC22nvGlu4A"',
     vary: 'Accept-Encoding',
     date: 'Sat, 26 Aug 2017 14:43:14 GMT',
     connection: 'close' },
  rawHeaders: 
   [ 'X-Powered-By',
     'Express',
     'Access-Control-Allow-Origin',
     '*',
     'Access-Control-Allow-Methods',
     'GET,PUT,POST,DELETE,OPTIONS',
     'Access-Control-Allow-Headers',
     'Content-Type, Authorization, Content-Length, X-Requested-With',
     'Content-Type',
     'application/json; charset=utf-8',
     'Content-Length',
     '50',
     'ETag',
     'W/"32-Duf3yIINIygUU0HrcC22nvGlu4A"',
     'Vary',
     'Accept-Encoding',
     'Date',
     'Sat, 26 Aug 2017 14:43:14 GMT',
     'Connection',
     'close' ],
  trailers: {},
  rawTrailers: [],
  upgrade: false,
  url: '',
  method: null,
  statusCode: 200,
  statusMessage: 'OK',
  client: 
   Socket {
     connecting: false,
     _hadError: false,
     _handle: null,
     _parent: null,
     _host: 'localhost',
     _readableState: 
      ReadableState {
        objectMode: false,
        highWaterMark: 16384,
        buffer: [Object],
        length: 0,
        pipes: null,
        pipesCount: 0,
        flowing: true,
        ended: false,
        endEmitted: false,
        reading: true,
        sync: false,
        needReadable: true,
        emittedReadable: false,
        readableListening: false,
        resumeScheduled: false,
        defaultEncoding: 'utf8',
        ranOut: false,
        awaitDrain: 0,
        readingMore: false,
        decoder: null,
        encoding: null },
     readable: false,
     domain: null,
     _events: 
      { end: [Object],
        finish: [Function: onSocketFinish],
        _socketEnd: [Function: onSocketEnd],
        free: [Function: onFree],
        close: [Object],
        agentRemove: [Function: onRemove],
        drain: [Function: ondrain],
        error: [Function: socketErrorListener] },
     _eventsCount: 8,
     _maxListeners: undefined,
     _writableState: 
      WritableState {
        objectMode: false,
        highWaterMark: 16384,
        needDrain: false,
        ending: true,
        ended: true,
        finished: true,
        decodeStrings: false,
        defaultEncoding: 'utf8',
        length: 0,
        writing: false,
        corked: 0,
        sync: false,
        bufferProcessing: false,
        onwrite: [Function],
        writecb: null,
        writelen: 0,
        bufferedRequest: null,
        lastBufferedRequest: null,
        pendingcb: 0,
        prefinished: true,
        errorEmitted: false,
        bufferedRequestCount: 0,
        corkedRequestsFree: [Object] },
     writable: false,
     allowHalfOpen: false,
     destroyed: true,
     _bytesDispatched: 96,
     _sockname: null,
     _pendingData: null,
     _pendingEncoding: '',
     server: null,
     _server: null,
     parser: null,
     _httpMessage: 
      ClientRequest {
        domain: null,
        _events: [Object],
        _eventsCount: 5,
        _maxListeners: undefined,
        output: [],
        outputEncodings: [],
        outputCallbacks: [],
        outputSize: 0,
        writable: true,
        _last: true,
        upgrading: false,
        chunkedEncoding: false,
        shouldKeepAlive: false,
        useChunkedEncodingByDefault: false,
        sendDate: false,
        _removedHeader: {},
        _contentLength: 0,
        _hasBody: true,
        _trailer: '',
        finished: true,
        _headerSent: true,
        socket: [Circular],
        connection: [Circular],
        _header: 'GET /api/v1/commands/?cmd=volume&volume=35 HTTP/1.1\r\nHost: localhost:3000\r\nConnection: close\r\n\r\n',
        _headers: [Object],
        _headerNames: [Object],
        _onPendingData: null,
        agent: [Object],
        socketPath: undefined,
        timeout: undefined,
        method: 'GET',
        path: '/api/v1/commands/?cmd=volume&volume=35',
        _ended: true,
        _redirectable: [Object],
        parser: null,
        res: [Circular] },
     read: [Function],
     _consuming: true,
     _idleNext: null,
     _idlePrev: null,
     _idleTimeout: -1 },
  _consuming: true,
  _dumped: false,
  req: 
   ClientRequest {
     domain: null,
     _events: 
      { socket: [Object],
        abort: [Function],
        aborted: [Function],
        error: [Function],
        prefinish: [Function: requestOnPrefinish] },
     _eventsCount: 5,
     _maxListeners: undefined,
     output: [],
     outputEncodings: [],
     outputCallbacks: [],
     outputSize: 0,
     writable: true,
     _last: true,
     upgrading: false,
     chunkedEncoding: false,
     shouldKeepAlive: false,
     useChunkedEncodingByDefault: false,
     sendDate: false,
     _removedHeader: {},
     _contentLength: 0,
     _hasBody: true,
     _trailer: '',
     finished: true,
     _headerSent: true,
     socket: 
      Socket {
        connecting: false,
        _hadError: false,
        _handle: null,
        _parent: null,
        _host: 'localhost',
        _readableState: [Object],
        readable: false,
        domain: null,
        _events: [Object],
        _eventsCount: 8,
        _maxListeners: undefined,
        _writableState: [Object],
        writable: false,
        allowHalfOpen: false,
        destroyed: true,
        _bytesDispatched: 96,
        _sockname: null,
        _pendingData: null,
        _pendingEncoding: '',
        server: null,
        _server: null,
        parser: null,
        _httpMessage: [Circular],
        read: [Function],
        _consuming: true,
        _idleNext: null,
        _idlePrev: null,
        _idleTimeout: -1 },
     connection: 
      Socket {
        connecting: false,
        _hadError: false,
        _handle: null,
        _parent: null,
        _host: 'localhost',
        _readableState: [Object],
        readable: false,
        domain: null,
        _events: [Object],
        _eventsCount: 8,
        _maxListeners: undefined,
        _writableState: [Object],
        writable: false,
        allowHalfOpen: false,
        destroyed: true,
        _bytesDispatched: 96,
        _sockname: null,
        _pendingData: null,
        _pendingEncoding: '',
        server: null,
        _server: null,
        parser: null,
        _httpMessage: [Circular],
        read: [Function],
        _consuming: true,
        _idleNext: null,
        _idlePrev: null,
        _idleTimeout: -1 },
     _header: 'GET /api/v1/commands/?cmd=volume&volume=35 HTTP/1.1\r\nHost: localhost:3000\r\nConnection: close\r\n\r\n',
     _headers: { host: 'localhost:3000' },
     _headerNames: { host: 'Host' },
     _onPendingData: null,
     agent: 
      Agent {
        domain: null,
        _events: [Object],
        _eventsCount: 1,
        _maxListeners: undefined,
        defaultPort: 80,
        protocol: 'http:',
        options: [Object],
        requests: {},
        sockets: [Object],
        freeSockets: {},
        keepAliveMsecs: 1000,
        keepAlive: false,
        maxSockets: Infinity,
        maxFreeSockets: 256 },
     socketPath: undefined,
     timeout: undefined,
     method: 'GET',
     path: '/api/v1/commands/?cmd=volume&volume=35',
     _ended: true,
     _redirectable: 
      Writable {
        _writableState: [Object],
        writable: true,
        domain: null,
        _events: [Object],
        _eventsCount: 2,
        _maxListeners: undefined,
        _redirectCount: 0,
        _onNativeResponse: [Function],
        _currentRequest: [Circular],
        _currentUrl: 'http://localhost/api/v1/commands/?cmd=volume&volume=35' },
     parser: null,
     res: [Circular] },
  responseUrl: 'http://localhost/api/v1/commands/?cmd=volume&volume=35',
  read: [Function] }
